Reproducible Research: Peer Assessment 1
…
# remove missing values
act <- na.omit(activity)

What is mean total number of steps taken per day?

# 1. Calculate the total number of steps taken per day
act_day <- act %>% 
  group_by(date)%>%
  summarise(steps = sum(steps))

## `summarise()` ungrouping output (override with `.groups` argument)

act_day

## # A tibble: 53 x 2
##    date       steps
##    <chr>      <int>
##  1 2012-10-02   126
##  2 2012-10-03 11352
##  3 2012-10-04 12116
##  4 2012-10-05 13294
##  5 2012-10-06 15420
##  6 2012-10-07 11015
##  7 2012-10-09 12811
##  8 2012-10-10  9900
##  9 2012-10-11 10304
## 10 2012-10-12 17382
## #  with 43 more rows
…
## [1] 10765

What is the average daily activity pattern?

# 1. Make a time series plot (i.e. \color{red}{\verb|type = "l"|}type = "l") of the 5-minute interval (x-axis) and the average number of steps taken, averaged across all days (y-axis)

act_int <- act %>%
  group_by(interval)%>%
  summarize(steps=mean(steps))

## `summarise()` ungrouping output (override with `.groups` argument)

act_int

## # A tibble: 288 x 2
##    interval  steps
##       <int>  <dbl>
##  1        0 1.72  
##  2        5 0.340 
##  3       10 0.132 
##  4       15 0.151 
##  5       20 0.0755
##  6       25 2.09  
##  7       30 0.528 
##  8       35 0.868 
##  9       40 0     
## 10       45 1.47  
## #  with 278 more rows
…
# 3. Create a new dataset that is equal to the original dataset but with the missing data filled in.

act_impute$steps[is.na(act_impute$steps)] <- act_impute$mean.steps[is.na(act_impute$steps)]

# 4. Make a histogram of the total number of steps taken each day and Calculate and report the mean and median total number of steps taken per day. Do these values differ from the estimates from the first part of the assignment? What is the impact of imputing missing data on the estimates of the total daily number of steps?
act_day_imp <- act_impute%>%
  group_by(date)%>%
  summarize(steps=sum(steps))

## `summarise()` ungrouping output (override with `.groups` argument)

act_day_imp

## # A tibble: 61 x 2
##    date        steps
##    <chr>       <dbl>
##  1 2012-10-01 10766.
##  2 2012-10-02   126 
##  3 2012-10-03 11352 
##  4 2012-10-04 12116 
##  5 2012-10-05 13294 
##  6 2012-10-06 15420 
##  7 2012-10-07 11015 
##  8 2012-10-08 10766.
##  9 2012-10-09 12811 
## 10 2012-10-10  9900 
## #  with 51 more rows
…
